{
	"patrons": [
		"@atomicpoet@calckey.social",
		"@shoq@mastodon.social",
		"@pikadude@erisly.social",
		"@sage@stop.voring.me",
		"@sky@therian.club",
		"@panos@electricrequiem.com",
		"@redhunt07@www.foxyhole.io",
		"@griff@stop.voring.me",
		"@cafkafk@ck.cafkafk.com",
		"@privateger@plasmatrap.com",
		"@effye@toot.thoughtworks.com",
		"@Kio@kitsunes.club",
		"@twann@tech.lgbt",
		"@surfbum@calckey.nz",
		"@topher@mastodon.online",
		"@hanicef@stop.voring.me",
		"@nmkj@calckey.jp",
		"@unattributed@calckey.social",
		"@cody@misskey.codingneko.com",
		"@kate@blahaj.zone",
		"@emtk@mkkey.net",
		"@jovikowi@calckey.social",
		"@padraig@calckey.social",
		"@pancakes@cats.city",
		"@theresmiling@calckey.social",
		"@AlderForrest@calckey.social",
		"@kristian@calckey.social",
		"@jo@blahaj.zone",
		"@narF@calckey.social",
		"@AlderForrest@calckey.social",
		"@box464@calckey.social",
		"@MariaTheMartian@calckey.social",
		"@nisemikol@calckey.social",
		"@smallpatatas@blahaj.zone",
		"@bayra@stop.voring.me",
		"@frost@wolfdo.gg",
		"@joebiden@fuckgov.org",
		"@nyaa@calckey.social",
		"@Dan@calckey.social",
		"@dana@calckey.social",
		"@Jdreben@calckey.social",
		"@natalie@prismst.one",
		"@KelsonV@wandering.shop",
		"@breakfastmtn@calckey.social",
		"@richardazia@mastodon.social",
		"@joestone@calckey.social",
		"@aj@calckey.social",
		"@zepfanman@ramblingreaders.org",
		"@kimby@stop.voring.me",
		"@fyrfli@bkgrdclrschm.link",
		"@riversidebryan@calckey.lgbt",
		"@aRubes@sloth.run",
		"@andreasdotorg@calckey.social",
		"@ozzy@calckey.online",
		"@leni@windycity.style",
		"@mhzmodels@calckey.art",
		"@ReflexVE@calckey.social",
		"@mark@calckey.social",
		"@skyizwhite@himagine.club",
		"@Uwu@calckey.social",
		"@jGoose@calckey.social",
		"@kunev@blewsky.social",
		"@Simoto@electricrequiem.com",
		"@Evoterra@calckey.social",
		"@LauraLangdon@procial.tchncs.de",
		"@mho@social.heise.de",
		"@richardazia@calckey.social",
		"@blues653@calckey.social",
		"@rafale_blue@calc.04.si",
		"@esm@lethallava.land",
		"@vmstan@vmst.io",
		"@jtbennett@noc.social",
		"@renere@distance.blue",
		"@theking@kitsunes.club",
		"@toof@fedi.toofie.net",
		"@Punko@calckey.social",
		"@joesbrat67@calckey.social",
		"@arth@calckey.social",
		"@octofloofy@ck.octofloofy.ink",
		"@pauliehedron@infosec.town",
		"@soulthunk@lethallava.land",
		"@bumble@ibe.social",
		"@DarrenNevares@calckey.social",
		"@irfan@calckey.social",
		"@dvd@dvd.chat",
		"@charlie2alpha@electricrequiem.com",
		"@arndot@layer8.space",
		"@ryan@c.ryanccn.dev",
		"@lapastora_deprova@calckey.social",
		"@rameez@calckey.social",
		"@dracoling@firetribe.org",
		"@Space6host@calckey.social",
		"@zakalwe@plasmatrap.com",
		"\nInterkosmos Link"
	]
}
